Resource Usage Report
Part: lfe5u_25f-6

Register bits: 16 of 24288 (0%)
PIC Latch:       0
I/O cells:       35

Details:
CCU2C:          288
FD1S3IX:        15
GSR:            1
IB:             2
INV:            1
MULT18X18D:     1
OB:             33
OFS1P3DX:       1
ORCALUT4:       261
PUR:            1
VHI:            2
VLO:            2
